{
  "database": [
    {
      "host": "database.internal",
      "ip":"246.0.65.26'",
      "password": "s3cr37",
      "path": "main",
      "port": 3306,
      "query": {
          "is_master": true
      },
      "scheme": "mysql",
      "username": "nfv"
    }
  ]
}